23-07-2019 23:37:12 - FATAL - m: 20,9 MB, u: 0 -  - 46.229.168.143 - HTTP method invalid
28-07-2019 14:24:19 - FATAL - m: 20,9 MB, u: 0 -  - 46.229.168.162 - HTTP method invalid
29-07-2019 14:56:07 - FATAL - m: 20,9 MB, u: 0 -  - 107.150.72.154 - HTTP method invalid
29-07-2019 17:45:44 - FATAL - m: 20,9 MB, u: 0 -  - 37.17.172.132 - HTTP method invalid
